{
  "android_install_page": {
    "css_files": [
      "static/css/android-install.css"
    ],
    "output_name": "android-install-page"
  },
  "update_page": {
    "css_files": [
      "static/css/update.css",
      "static/css/payment/form.css",
      "static/css/payment/stripe-modal.css"
    ],
    "output_name": "update"
  },
  "donate_page": {
    "css_files": [
      "static/css/payment/form-donate.css",
      "static/css/payment/stripe-modal-donate.css"
    ],
    "output_name": "donate"
  },
  "download_page": {
    "css_files": [
      "static/css/defaults.css",
      "static/css/fonts.css",
      "static/css/main.css",
      "static/css/cookies.css",
      "static/css/download.css"
    ],
    "output_name": "download-page"
  },
  "installed_page": {
    "css_files": [
      "static/css/defaults.css",
      "static/css/fonts.css",
      "static/css/main.css",
      "static/css/pages/installed.css",
      "static/css/payment/form.css",
      "static/css/payment/stripe-modal.css"
    ],
    "output_name": "installed"
  }
}
